{
   "key": "com.atlassian.jira.static.tutorial",
   "name": "Static Tutorial for JIRA",
   "version": "1.0",
   "description": "Tutorial Add-on for learning Connect",
   "vendor": {
      "name": "Atlassian",
      "url": "http://www.atlassian.com"
   },
   "baseUrl": "https://nikolayloboda.bitbucket.io",
   "authentication": {
      "type": "none"
   },
   "scopes": [
        "read"
    ],
   "modules": {
      "generalPages": [
         {
            "url": "/hello-you.html",
            "key": "hello-world",
            "location": "system.top.navigation.bar",
            "name": {
               "value": "Click me"
            }
         }
      ]
   }
}
